…
get_top10 <- function(.df){
  .df %>% 
    dplyr::arrange(
      dplyr::desc(expression)
    ) %>%
    head(10)
}

I could split the data-frame into a list based on the tissue values, order the subtables by expression, take the head of those subtables and join them back up. Something like:

df %>% 
  split(f = df$tissue) %>% 
  map_df(get_top10)

## # A tibble: 30 x 3
##    tissue gene_id expression
##    <chr>  <chr>        <dbl>
##  1 A      d            1.60 
##  2 A      k            1.51 
##  3 A      o            1.12 
##  4 A      r            0.944
##  5 A      u            0.919
##  6 A      s            0.821
##  7 A      v            0.782
##  8 A      h            0.738
##  9 A      y            0.620
## 10 A      t            0.594
## # ... with 20 more rows

Which works perfectly fine.

Or, I could use nest

df %>%
  group_by(tissue) %>%
  nest() %>%
  mutate(data = map(data, get_top10)) %>%
  unnest()

## # A tibble: 30 x 3
##    tissue gene_id expression
##    <chr>  <chr>        <dbl>
##  1 A      d            1.60 
##  2 A      k            1.51 
##  3 A      o            1.12 
##  4 A      r            0.944
##  5 A      u            0.919
##  6 A      s            0.821
##  7 A      v            0.782
##  8 A      h            0.738
##  9 A      y            0.620
## 10 A      t            0.594
## # ... with 20 more rows
…
